{
  "_class": "group",
  "do_objectID": "1D0A5AF4-8EED-4297-8BFF-D37C1E309398",
  "exportOptions": {
    "_class": "exportOptions",
    "exportFormats": [
    ],
    "includedLayerIds": [
    ],
    "layerOptions": 0,
    "shouldTrim": false
  },
  "frame": {
    "_class": "rect",
    "constrainProportions": false,
    "height": 19,
    "width": 21,
    "x": 31,
    "y": 16
  },
  "hasClickThrough": false,
  "isFlippedHorizontal": false,
  "isFlippedVertical": false,
  "isLocked": false,
  "isVisible": true,
  "layerListExpandedType": 2,
  "layers": [
    {
      "class": "shapeGroup",
      "id": "6F655868-6DC1-4C52-9D7F-FE135919A517"
    },
    {
      "class": "text",
      "id": "CB78F67E-3F0A-4FA0-B5AC-13EB01DD59A9"
    }
  ],
  "name": "count-badge",
  "nameIsFixed": true,
  "resizingConstraint": 59,
  "resizingType": 0,
  "rotation": 0,
  "shouldBreakMaskChain": false,
  "style": {
    "_class": "style",
    "endDecorationType": 0,
    "miterLimit": 10,
    "startDecorationType": 0
  }
}