{
  "_class": "shapePath",
  "booleanOperation": -1,
  "do_objectID": "8295B5C9-F1D5-4825-B168-EFAC56333FF2",
  "edited": true,
  "exportOptions": {
    "_class": "exportOptions",
    "exportFormats": [
    ],
    "includedLayerIds": [
    ],
    "layerOptions": 0,
    "shouldTrim": false
  },
  "frame": {
    "_class": "rect",
    "constrainProportions": false,
    "height": 2060.999999999998,
    "width": 1,
    "x": 0,
    "y": 0
  },
  "isFlippedHorizontal": false,
  "isFlippedVertical": false,
  "isLocked": false,
  "isVisible": true,
  "layerListExpandedType": 0,
  "name": "Path",
  "nameIsFixed": false,
  "path": {
    "_class": "path",
    "isClosed": false,
    "pointRadiusBehaviour": 1,
    "points": [
      {
        "_class": "curvePoint",
        "cornerRadius": 0,
        "curveFrom": "{0.66666666666666663, 0.0018018018018018016}",
        "curveMode": 1,
        "curveTo": "{0.66666666666666663, 0.0018018018018018016}",
        "hasCurveFrom": false,
        "hasCurveTo": false,
        "point": "{0.5, 0.00090090090090090081}"
      },
      {
        "_class": "curvePoint",
        "cornerRadius": 0,
        "curveFrom": "{1, 0.0036036036036036032}",
        "curveMode": 1,
        "curveTo": "{1, 0.0036036036036036032}",
        "hasCurveFrom": false,
        "hasCurveTo": false,
        "point": "{0.50000000000001132, 0.99917877848962366}"
      }
    ]
  },
  "resizingConstraint": 63,
  "resizingType": 0,
  "rotation": 0,
  "shouldBreakMaskChain": false
}