{
  "_class": "group",
  "do_objectID": "275D7B14-9ABD-4152-9B7B-F5146A8F0DAD",
  "exportOptions": {
    "_class": "exportOptions",
    "exportFormats": [
    ],
    "includedLayerIds": [
    ],
    "layerOptions": 0,
    "shouldTrim": false
  },
  "frame": {
    "_class": "rect",
    "constrainProportions": false,
    "height": 24,
    "width": 33,
    "x": 0,
    "y": 0
  },
  "hasClickThrough": false,
  "isFlippedHorizontal": true,
  "isFlippedVertical": false,
  "isLocked": false,
  "isVisible": true,
  "layerListExpandedType": 0,
  "layers": [
    {
      "class": "shapeGroup",
      "id": "49ED6DEF-9989-4C76-BCD5-6F2BB91AAC64"
    },
    {
      "class": "shapeGroup",
      "id": "A2BCD6E0-3DB4-42CE-8CBD-63CDBF741B41"
    },
    {
      "class": "shapeGroup",
      "id": "AEE13AA9-7982-4A02-B476-000B70408BB1"
    },
    {
      "class": "shapeGroup",
      "id": "A952097A-92AB-4761-9161-D5C75ABDAAF5"
    },
    {
      "class": "shapeGroup",
      "id": "C807E709-3782-47B7-B82E-921E6D88364A"
    }
  ],
  "name": "Group Copy 2",
  "nameIsFixed": false,
  "resizingConstraint": 63,
  "resizingType": 0,
  "rotation": 0,
  "shouldBreakMaskChain": false,
  "style": {
    "_class": "style",
    "endDecorationType": 0,
    "miterLimit": 10,
    "startDecorationType": 0
  }
}