{
  "_class": "shapePath",
  "booleanOperation": -1,
  "do_objectID": "29A03ECD-DCC9-4603-B279-58113EBA23B2",
  "edited": true,
  "exportOptions": {
    "_class": "exportOptions",
    "exportFormats": [
    ],
    "includedLayerIds": [
    ],
    "layerOptions": 0,
    "shouldTrim": false
  },
  "frame": {
    "_class": "rect",
    "constrainProportions": false,
    "height": 15.42857142857143,
    "width": 16,
    "x": 0,
    "y": 0
  },
  "isFlippedHorizontal": false,
  "isFlippedVertical": false,
  "isLocked": false,
  "isVisible": true,
  "layerListExpandedType": 0,
  "name": "Path",
  "nameIsFixed": false,
  "path": {
    "_class": "path",
    "isClosed": true,
    "pointRadiusBehaviour": 0,
    "points": [
      {
        "_class": "curvePoint",
        "cornerRadius": 0,
        "curveFrom": "{1, 0.49218787760416671}",
        "curveMode": 3,
        "curveTo": "{1, 0.36024277343750005}",
        "hasCurveFrom": true,
        "hasCurveTo": true,
        "point": "{1, 0.4166666666666668}"
      },
      {
        "_class": "curvePoint",
        "cornerRadius": 0,
        "curveFrom": "{0.88839263392857104, 0.68999597981770844}",
        "curveMode": 2,
        "curveTo": "{0.97767879464285712, 0.56195714518229167}",
        "hasCurveFrom": true,
        "hasCurveTo": true,
        "point": "{0.93303571428571452, 0.6259765625}"
      },
      {
        "_class": "curvePoint",
        "cornerRadius": 0,
        "curveFrom": "{0.67447878348214296, 0.81477883138020846}",
        "curveMode": 2,
        "curveTo": "{0.82775335937499983, 0.74055971028645839}",
        "hasCurveFrom": true,
        "hasCurveTo": true,
        "point": "{0.75111607142857095, 0.77766927083333337}"
      },
      {
        "_class": "curvePoint",
        "cornerRadius": 0,
        "curveFrom": "{0.47395820312500014, 0.83333333333333348}",
        "curveMode": 3,
        "curveTo": "{0.59077426339285688, 0.83333333333333348}",
        "hasCurveFrom": true,
        "hasCurveTo": true,
        "point": "{0.5, 0.83333333333333348}"
      },
      {
        "_class": "curvePoint",
        "cornerRadius": 0,
        "curveFrom": "{0.34542373883928534, 0.90408024088541661}",
        "curveMode": 4,
        "curveTo": "{0.44698674665178589, 0.83159723958333331}",
        "hasCurveFrom": true,
        "hasCurveTo": true,
        "point": "{0.41908482142857095, 0.82812500000000011}"
      },
      {
        "_class": "curvePoint",
        "cornerRadius": 0,
        "curveFrom": "{0.14415913504464267, 0.99175350260416684}",
        "curveMode": 4,
        "curveTo": "{0.25985911830357128, 0.95659707682291673}",
        "hasCurveFrom": true,
        "hasCurveTo": true,
        "point": "{0.16238839285714274, 0.98567708333333337}"
      },
      {
        "_class": "curvePoint",
        "cornerRadius": 0,
        "curveFrom": "{0.098772321428571369, 1}",
        "curveMode": 4,
        "curveTo": "{0.12295398995535696, 0.9965277604166668}",
        "hasCurveFrom": false,
        "hasCurveTo": true,
        "point": "{0.098772321428571369, 1}"
      },
      {
        "_class": "curvePoint",
        "cornerRadius": 0,
        "curveFrom": "{0.090401757812499914, 1}",
        "curveMode": 4,
        "curveTo": "{0.095982142857142738, 1}",
        "hasCurveFrom": true,
        "hasCurveTo": false,
        "point": "{0.095982142857142738, 1}"
      },
      {
        "_class": "curvePoint",
        "cornerRadius": 0,
        "curveFrom": "{0.076450870535714283, 0.98860674804687509}",
        "curveMode": 2,
        "curveTo": "{0.085379486607142965, 0.99772137695312513}",
        "hasCurveFrom": true,
        "hasCurveTo": true,
        "point": "{0.080915178571428631, 0.9931640625}"
      },
      {
        "_class": "curvePoint",
        "cornerRadius": 0,
        "curveFrom": "{0.071986607142857262, 0.97526041666666674}",
        "curveMode": 4,
        "curveTo": "{0.073474709821428438, 0.98263892578125012}",
        "hasCurveFrom": false,
        "hasCurveTo": true,
        "point": "{0.071986607142857262, 0.97526041666666674}"
      },
      {
        "_class": "curvePoint",
        "cornerRadius": 0,
        "curveFrom": "{0.070870530133928369, 0.97287325520833356}",
        "curveMode": 4,
        "curveTo": "{0.071986607142857262, 0.97460937500000011}",
        "hasCurveFrom": true,
        "hasCurveTo": false,
        "point": "{0.071986607142857262, 0.97460937500000011}"
      },
      {
        "_class": "curvePoint",
        "cornerRadius": 0,
        "curveFrom": "{0.072637653459821261, 0.9633246354166668}",
        "curveMode": 2,
        "curveTo": "{0.070777525111606981, 0.97026911458333354}",
        "hasCurveFrom": true,
        "hasCurveTo": true,
        "point": "{0.071707589285714121, 0.96679687500000011}"
      },
      {
        "_class": "curvePoint",
        "cornerRadius": 0,
        "curveFrom": "{0.07263764787946414, 0.9594183984375001}",
        "curveMode": 2,
        "curveTo": "{0.073009673549107229, 0.96115451822916664}",
        "hasCurveFrom": true,
        "hasCurveTo": true,
        "point": "{0.072823660714285879, 0.96028645833333348}"
      },
      {
        "_class": "curvePoint",
        "cornerRadius": 0,
        "curveFrom": "{0.075334821428571369, 0.95410156250000011}",
        "curveMode": 4,
        "curveTo": "{0.07347469308035709, 0.95735678710937511}",
        "hasCurveFrom": false,
        "hasCurveTo": true,
        "point": "{0.075334821428571369, 0.95410156250000011}"
      },
      {
        "_class": "curvePoint",
        "cornerRadius": 0,
        "curveFrom": "{0.079055061383928579, 0.94759114257812505}",
        "curveMode": 4,
        "curveTo": "{0.078683035714285879, 0.94824218750000022}",
        "hasCurveFrom": true,
        "hasCurveTo": false,
        "point": "{0.078683035714285879, 0.94824218750000022}"
      },
      {
        "_class": "curvePoint",
        "cornerRadius": 0,
        "curveFrom": "{0.084821439732142859, 0.93967012369791669}",
        "curveMode": 2,
        "curveTo": "{0.08035713169642851, 0.94574654296875016}",
        "hasCurveFrom": true,
        "hasCurveTo": true,
        "point": "{0.082589285714285879, 0.94270833333333348}"
      },
      {
        "_class": "curvePoint",
        "cornerRadius": 0,
        "curveFrom": "{0.089657751116071438, 0.93337671875000006}",
        "curveMode": 4,
        "curveTo": "{0.08630952008928558, 0.93771701822916675}",
        "hasCurveFrom": true,
        "hasCurveTo": true,
        "point": "{0.087053571428571369, 0.93684895833333348}"
      },
      {
        "_class": "curvePoint",
        "cornerRadius": 0,
        "curveFrom": "{0.11328129464285731, 0.90288622721354184}",
        "curveMode": 2,
        "curveTo": "{0.095424062499999948, 0.92588981445312513}",
        "hasCurveFrom": true,
        "hasCurveTo": true,
        "point": "{0.10435267857142863, 0.91438802083333337}"
      },
      {
        "_class": "curvePoint",
        "cornerRadius": 0,
        "curveFrom": "{0.12751118024553579, 0.88465709309895846}",
        "curveMode": 2,
        "curveTo": "{0.11969864118303558, 0.89463978190104176}",
        "hasCurveFrom": true,
        "hasCurveTo": true,
        "point": "{0.12360491071428588, 0.88964843750000011}"
      },
      {
        "_class": "curvePoint",
        "cornerRadius": 0,
        "curveFrom": "{0.14853054408482158, 0.85177945312500014}",
        "curveMode": 2,
        "curveTo": "{0.13327749162946428, 0.87608513020833345}",
        "hasCurveFrom": true,
        "hasCurveTo": true,
        "point": "{0.14090401785714274, 0.86393229166666685}"
      },
      {
        "_class": "curvePoint",
        "cornerRadius": 0,
        "curveFrom": "{0.16350448660714298, 0.82074647786458343}",
        "curveMode": 2,
        "curveTo": "{0.15457587053571428, 0.84071185546875005}",
        "hasCurveFrom": true,
        "hasCurveTo": true,
        "point": "{0.15904017857142863, 0.83072916666666674}"
      },
      {
        "_class": "curvePoint",
        "cornerRadius": 0,
        "curveFrom": "{0.17968752790178558, 0.77669263020833346}",
        "curveMode": 2,
        "curveTo": "{0.16852675781249993, 0.8079427864583334}",
        "hasCurveFrom": true,
        "hasCurveTo": true,
        "point": "{0.17410714285714274, 0.79231770833333337}"
      },
      {
        "_class": "curvePoint",
        "cornerRadius": 0,
        "curveFrom": "{0.13020804129464303, 0.70420987630208343}",
        "curveMode": 4,
        "curveTo": "{0.18452378906250011, 0.76019973958333342}",
        "hasCurveFrom": true,
        "hasCurveTo": true,
        "point": "{0.18861607142857137, 0.74283854166666674}"
      },
      {
        "_class": "curvePoint",
        "cornerRadius": 0,
        "curveFrom": "{0.016833909040178539, 0.54275145182291673}",
        "curveMode": 2,
        "curveTo": "{0.084170555245535572, 0.65646729817708349}",
        "hasCurveFrom": true,
        "hasCurveTo": true,
        "point": "{0.050502232142857255, 0.59960937500000011}"
      },
      {
        "_class": "curvePoint",
        "cornerRadius": 0,
        "curveFrom": "{0, 0.36024277343750005}",
        "curveMode": 2,
        "curveTo": "{0, 0.48177115885416683}",
        "hasCurveFrom": true,
        "hasCurveTo": true,
        "point": "{0, 0.4166666666666668}"
      },
      {
        "_class": "curvePoint",
        "cornerRadius": 0,
        "curveFrom": "{0.066034358258928449, 0.20345026367187505}",
        "curveMode": 2,
        "curveTo": "{0.013206713169642923, 0.30631536132812498}",
        "hasCurveFrom": true,
        "hasCurveTo": true,
        "point": "{0.039620535714285886, 0.25488281250000006}"
      },
      {
        "_class": "curvePoint",
        "cornerRadius": 0,
        "curveFrom": "{0.19084843749999988, 0.084418216145833447}",
        "curveMode": 2,
        "curveTo": "{0.10156227678571422, 0.15907136718750006}",
        "hasCurveFrom": true,
        "hasCurveTo": true,
        "point": "{0.14620535714285726, 0.12174479166666664}"
      },
      {
        "_class": "curvePoint",
        "cornerRadius": 0,
        "curveFrom": "{0.3675598325892856, 0.010959091796874926}",
        "curveMode": 2,
        "curveTo": "{0.24404731026785717, 0.054796116536458321}",
        "hasCurveFrom": true,
        "hasCurveTo": true,
        "point": "{0.3058035714285714, 0.032877604166666623}"
      },
      {
        "_class": "curvePoint",
        "cornerRadius": 0,
        "curveFrom": "{0.56770867187500018, 0}",
        "curveMode": 2,
        "curveTo": "{0.43229132812499987, 0}",
        "hasCurveFrom": true,
        "hasCurveTo": true,
        "point": "{0.5, 0}"
      },
      {
        "_class": "curvePoint",
        "cornerRadius": 0,
        "curveFrom": "{0.7559526897321428, 0.054796116536458321}",
        "curveMode": 2,
        "curveTo": "{0.6324401674107144, 0.010959091796874926}",
        "hasCurveFrom": true,
        "hasCurveTo": true,
        "point": "{0.69419642857142827, 0.032877604166666623}"
      },
      {
        "_class": "curvePoint",
        "cornerRadius": 0,
        "curveFrom": "{0.89843772321428539, 0.15907136718750006}",
        "curveMode": 2,
        "curveTo": "{0.80915156250000009, 0.084418216145833447}",
        "hasCurveFrom": true,
        "hasCurveTo": true,
        "point": "{0.85379464285714279, 0.12174479166666664}"
      },
      {
        "_class": "curvePoint",
        "cornerRadius": 0,
        "curveFrom": "{0.98679328683035705, 0.30631536132812498}",
        "curveMode": 2,
        "curveTo": "{0.93396564174107111, 0.20345026367187505}",
        "hasCurveFrom": true,
        "hasCurveTo": true,
        "point": "{0.96037946428571452, 0.25488281250000006}"
      }
    ]
  },
  "resizingConstraint": 63,
  "resizingType": 0,
  "rotation": 0,
  "shouldBreakMaskChain": false
}