<?xml version="1.0" encoding="UTF-8"?>
<svg width="16px" height="16px" viewBox="0 0 16 16" version="1.1" xmlns="http://www.w3.org/2000/svg" xmlns:xlink="http://www.w3.org/1999/xlink">
    <!-- Generator: Sketch 63.1 (92452) - https://sketch.com -->
    <title>icn/book</title>
    <desc>Created with Sketch.</desc>
    <g id="icn/book" stroke="none" stroke-width="1" fill="none" fill-rule="evenodd">
        <path d="M2,2 C2,0.895431 2.895431,0 4,0 L12,0 C13.1046,0 14,0.895431 14,2 L14,14 C14,15.1046 13.1046,16 12,16 L4,16 C2.895431,16 2,15.1046 2,14 L2,2 Z M10,2 L12,2 L12,14 L4,14 L4,2 L8,2 L8,7 L10,7 L10,2 Z" id="Book" fill="#000000"></path>
    </g>
</svg>