{
  "_class": "shapeGroup",
  "clippingMaskMode": 0,
  "do_objectID": "F51925C5-6290-493F-88D9-BAC3833EC53F",
  "exportOptions": {
    "_class": "exportOptions",
    "exportFormats": [
    ],
    "includedLayerIds": [
    ],
    "layerOptions": 0,
    "shouldTrim": false
  },
  "frame": {
    "_class": "rect",
    "constrainProportions": false,
    "height": 4,
    "width": 8,
    "x": 44,
    "y": 24
  },
  "hasClickThrough": false,
  "hasClippingMask": false,
  "isFlippedHorizontal": false,
  "isFlippedVertical": false,
  "isLocked": false,
  "isVisible": true,
  "layerListExpandedType": 1,
  "layers": [
    {
      "class": "triangle",
      "id": "14056C79-4E90-480E-9EA0-A16F3599AD94"
    }
  ],
  "name": "Triangle",
  "nameIsFixed": false,
  "resizingConstraint": 37,
  "resizingType": 0,
  "rotation": 0,
  "shouldBreakMaskChain": false,
  "style": {
    "sharedObjectID": "FBAAE206-1B7D-4559-A64D-AF713EE8FE68"
  },
  "windingRule": 1
}