{
  "_class": "shapePath",
  "booleanOperation": 0,
  "do_objectID": "CE964FD0-04FA-4EC6-A7AE-EAF72BF9A2E2",
  "edited": true,
  "exportOptions": {
    "_class": "exportOptions",
    "exportFormats": [
    ],
    "includedLayerIds": [
    ],
    "layerOptions": 0,
    "shouldTrim": false
  },
  "frame": {
    "_class": "rect",
    "constrainProportions": false,
    "height": 8.88888888888889,
    "width": 15.99961057559866,
    "x": 0.0001947122006891059,
    "y": 8.326672684688677e-17
  },
  "isFlippedHorizontal": false,
  "isFlippedVertical": false,
  "isLocked": false,
  "isVisible": true,
  "layerListExpandedType": 0,
  "name": "Shape",
  "nameIsFixed": false,
  "path": {
    "_class": "path",
    "isClosed": true,
    "pointRadiusBehaviour": 1,
    "points": [
      {
        "_class": "curvePoint",
        "cornerRadius": 0,
        "curveFrom": "{0.49079521639816293, -0.0035190936333361427}",
        "curveMode": 4,
        "curveTo": "{0.47515480025000234, 0.010557280900008428}",
        "hasCurveFrom": true,
        "hasCurveTo": false,
        "point": "{0.47515480025000234, 0.010557280900008428}"
      },
      {
        "_class": "curvePoint",
        "cornerRadius": 0,
        "curveFrom": "{0.52484519974999766, 0.010557280900008428}",
        "curveMode": 4,
        "curveTo": "{0.50920478360183707, -0.0035190936333361427}",
        "hasCurveFrom": false,
        "hasCurveTo": true,
        "point": "{0.52484519974999766, 0.010557280900008428}"
      },
      {
        "_class": "curvePoint",
        "cornerRadius": 0,
        "curveFrom": "{1.0102367852685192, 0.44740970786667794}",
        "curveMode": 4,
        "curveTo": "{0.96928964419444208, 0.41055728090000843}",
        "hasCurveFrom": true,
        "hasCurveTo": false,
        "point": "{0.96928964419444208, 0.41055728090000843}"
      },
      {
        "_class": "curvePoint",
        "cornerRadius": 0,
        "curveFrom": "{0.96928964419444208, 0.58944271909999157}",
        "curveMode": 4,
        "curveTo": "{1.0102367852685192, 0.55259029213332211}",
        "hasCurveFrom": false,
        "hasCurveTo": true,
        "point": "{0.96928964419444208, 0.58944271909999157}"
      },
      {
        "_class": "curvePoint",
        "cornerRadius": 0,
        "curveFrom": "{0.50920478360183707, 1.003519093633336}",
        "curveMode": 4,
        "curveTo": "{0.52484519974999766, 0.98944271909999171}",
        "hasCurveFrom": true,
        "hasCurveTo": false,
        "point": "{0.52484519974999766, 0.98944271909999171}"
      },
      {
        "_class": "curvePoint",
        "cornerRadius": 0,
        "curveFrom": "{0.47515480025000234, 0.98944271909999171}",
        "curveMode": 4,
        "curveTo": "{0.49079521639816293, 1.003519093633336}",
        "hasCurveFrom": false,
        "hasCurveTo": true,
        "point": "{0.47515480025000234, 0.98944271909999171}"
      },
      {
        "_class": "curvePoint",
        "cornerRadius": 0,
        "curveFrom": "{-0.010236785268519295, 0.55259029213332211}",
        "curveMode": 4,
        "curveTo": "{0.030710355805557896, 0.58944271909999157}",
        "hasCurveFrom": true,
        "hasCurveTo": false,
        "point": "{0.030710355805557896, 0.58944271909999157}"
      },
      {
        "_class": "curvePoint",
        "cornerRadius": 0,
        "curveFrom": "{0.030710355805557896, 0.41055728090000843}",
        "curveMode": 4,
        "curveTo": "{-0.010236785268519295, 0.44740970786667794}",
        "hasCurveFrom": false,
        "hasCurveTo": true,
        "point": "{0.030710355805557896, 0.41055728090000843}"
      }
    ]
  },
  "resizingConstraint": 63,
  "resizingType": 0,
  "rotation": 0,
  "shouldBreakMaskChain": false
}