{
  "_class": "group",
  "do_objectID": "A1F4E656-900C-4ADD-93AF-10D6E9CC9B48",
  "exportOptions": {
    "_class": "exportOptions",
    "exportFormats": [
    ],
    "includedLayerIds": [
    ],
    "layerOptions": 0,
    "shouldTrim": false
  },
  "frame": {
    "_class": "rect",
    "constrainProportions": false,
    "height": 588,
    "width": 97,
    "x": 1206,
    "y": 120
  },
  "hasClickThrough": false,
  "isFlippedHorizontal": false,
  "isFlippedVertical": false,
  "isLocked": false,
  "isVisible": true,
  "layerListExpandedType": 1,
  "layers": [
    {
      "class": "shapeGroup",
      "id": "A1C7CDC7-2A07-4738-8225-02DBE0F2FC63"
    },
    {
      "class": "shapeGroup",
      "id": "F3C42A22-E62B-4407-BA3F-A9DD5CC55522"
    },
    {
      "class": "shapeGroup",
      "id": "431A31CD-1B57-4180-9BF6-7AFAC15D6771"
    },
    {
      "class": "shapeGroup",
      "id": "CF848E19-B242-47B8-AC74-D6F0F008C1AC"
    },
    {
      "class": "group",
      "id": "BC7DE495-E59A-4F7C-8C6C-FAFB605C0420"
    }
  ],
  "name": "milestone",
  "nameIsFixed": true,
  "resizingConstraint": 63,
  "resizingType": 0,
  "rotation": 0,
  "shouldBreakMaskChain": false,
  "style": {
    "_class": "style",
    "endDecorationType": 0,
    "miterLimit": 10,
    "startDecorationType": 0
  }
}