{
  "_class": "shapePath",
  "booleanOperation": -1,
  "do_objectID": "AD20CEB7-54F1-40F2-A449-76A2B61543D1",
  "edited": true,
  "exportOptions": {
    "_class": "exportOptions",
    "exportFormats": [
    ],
    "includedLayerIds": [
    ],
    "layerOptions": 0,
    "shouldTrim": false
  },
  "frame": {
    "_class": "rect",
    "constrainProportions": false,
    "height": 1.5,
    "width": 6.222222222222221,
    "x": 0,
    "y": 0
  },
  "isFlippedHorizontal": false,
  "isFlippedVertical": false,
  "isLocked": false,
  "isVisible": true,
  "layerListExpandedType": 0,
  "name": "Path",
  "nameIsFixed": false,
  "path": {
    "_class": "path",
    "isClosed": true,
    "pointRadiusBehaviour": 1,
    "points": [
      {
        "_class": "curvePoint",
        "cornerRadius": 0,
        "curveFrom": "{0, 0.22385762509999996}",
        "curveMode": 2,
        "curveTo": "{0, 0.77806758880615234}",
        "hasCurveFrom": true,
        "hasCurveTo": true,
        "point": "{0, 0.5}"
      },
      {
        "_class": "curvePoint",
        "cornerRadius": 0,
        "curveFrom": "{0.10701751708984375, 0}",
        "curveMode": 4,
        "curveTo": "{0.048232078552246094, 0}",
        "hasCurveFrom": false,
        "hasCurveTo": true,
        "point": "{0.10701751708984375, 0}"
      },
      {
        "_class": "curvePoint",
        "cornerRadius": 0,
        "curveFrom": "{0.95208662556033785, 0}",
        "curveMode": 4,
        "curveTo": "{0.89298248291015625, 0}",
        "hasCurveFrom": true,
        "hasCurveTo": false,
        "point": "{0.89298248291015625, 0}"
      },
      {
        "_class": "curvePoint",
        "cornerRadius": 0,
        "curveFrom": "{1, 0.77614237490000004}",
        "curveMode": 2,
        "curveTo": "{1, 0.22193241119384766}",
        "hasCurveFrom": true,
        "hasCurveTo": true,
        "point": "{1, 0.5}"
      },
      {
        "_class": "curvePoint",
        "cornerRadius": 0,
        "curveFrom": "{0.89298248291015625, 1}",
        "curveMode": 4,
        "curveTo": "{0.95176792144775391, 1}",
        "hasCurveFrom": false,
        "hasCurveTo": true,
        "point": "{0.89298248291015625, 1}"
      },
      {
        "_class": "curvePoint",
        "cornerRadius": 0,
        "curveFrom": "{0.047913374439662169, 1}",
        "curveMode": 4,
        "curveTo": "{0.10701751708984375, 1}",
        "hasCurveFrom": true,
        "hasCurveTo": false,
        "point": "{0.10701751708984375, 1}"
      }
    ]
  },
  "resizingConstraint": 63,
  "resizingType": 0,
  "rotation": 0,
  "shouldBreakMaskChain": false
}