{
  "_class": "shapeGroup",
  "clippingMaskMode": 0,
  "do_objectID": "728CCF21-6B37-4BB5-8877-5DA412625E94",
  "exportOptions": {
    "_class": "exportOptions",
    "exportFormats": [
    ],
    "includedLayerIds": [
    ],
    "layerOptions": 0,
    "shouldTrim": false
  },
  "frame": {
    "_class": "rect",
    "constrainProportions": false,
    "height": 4,
    "width": 4,
    "x": 121,
    "y": 0
  },
  "hasClickThrough": false,
  "hasClippingMask": false,
  "isFlippedHorizontal": false,
  "isFlippedVertical": false,
  "isLocked": false,
  "isVisible": true,
  "layerListExpandedType": 0,
  "layers": [
    {
      "class": "rectangle",
      "id": "F69BC755-0F11-4E65-B8D5-7635C9F707D9"
    }
  ],
  "name": "Rectangle 5 Copy 8",
  "nameIsFixed": false,
  "resizingConstraint": 63,
  "resizingType": 0,
  "rotation": 0,
  "shouldBreakMaskChain": false,
  "style": {
    "sharedObjectID": "65802A2B-CB02-4F1B-A5DA-C45CA7D3EB92"
  },
  "windingRule": 1
}